Construct A Random Variable Table — rvtable â€¢ rvtable
…
    Examples

# basic samples from continuous and discrete RVs
x <- rnorm(100)
rvtable(x)
#> # A tibble: 512 x 2
#>            x            y
#>        <dbl>        <dbl>
#>  1 -3.454880 0.0002131446
#>  2 -3.438980 0.0002396017
#>  3 -3.423080 0.0002688230
#>  4 -3.407179 0.0003023149
#>  5 -3.391279 0.0003388508
#>  6 -3.375379 0.0003785400
#>  7 -3.359479 0.0004238740
#>  8 -3.343578 0.0004736674
#>  9 -3.327678 0.0005276445
#> 10 -3.311778 0.0005875779
#> # ... with 502 more rows
rvtable(x, density.args=list(n=50, adjust=2))
#> # A tibble: 50 x 2
#>            x            y
#>        <dbl>        <dbl>
#>  1 -4.733530 0.0001913517
#>  2 -4.515523 0.0004282042
#>  3 -4.297516 0.0009063360
#>  4 -4.079509 0.0018112319
#>  5 -3.861502 0.0034216676
#>  6 -3.643496 0.0061365053
#>  7 -3.425489 0.0104390024
#>  8 -3.207482 0.0168955187
#>  9 -2.989475 0.0260886455
#> 10 -2.771468 0.0384900217
#> # ... with 40 more rows
rvtable(x, discrete=TRUE) # incorrect: x is a continuous RV
#> # A tibble: 100 x 2
#>            x     y
#>        <dbl> <dbl>
#>  1 -2.176230  0.01
#>  2 -2.119700  0.01
#>  3 -1.867385  0.01
#>  4 -1.865924  0.01
#>  5 -1.850890  0.01
#>  6 -1.800260  0.01
#>  7 -1.781062  0.01
#>  8 -1.642906  0.01
#>  9 -1.468643  0.01
#> 10 -1.425660  0.01
#> # ... with 90 more rows
…
